{"filesize": "", "keyword": "", "list": [{"ID": "661fdf3e63ec4fd6af490d9ef8b200c5", "EPS_NAME": "贵阳科福科技有限公司香料化妆品分公司", "PRODUCT_SN": "贵妆20170003", "CITY_CODE": "246", "XK_COMPLETE_DATE": {"date": 19, "day": 6, "hours": 0, "minutes": 0, "month": 1, "nanos": 0, "seconds": 0, "time": 1645200000000, "timezoneOffset": -480, "year": 122}, "XK_DATE": "2027-02-19", "QF_MANAGER_NAME": "贵州省药品监督管理局", "BUSINESS_LICENSE_NUMBER": "915201002144585866", "XC_DATE": "2022-02-19", "NUM_": 1}, {"ID": "a47ef2dcc10a4516947040a156693605", "EPS_NAME": "福建欧柏亚日化有限公司", "PRODUCT_SN": "闽妆20160008", "CITY_CODE": "140", "XK_COMPLETE_DATE": {"date": 18, "day": 2, "hours": 0, "minutes": 0, "month": 0, "nanos": 0, "seconds": 0, "time": 1642435200000, "timezoneOffset": -480, "year": 122}, "XK_DATE": "2027-01-18", "QF_MANAGER_NAME": "福建省药品监督管理局", "BUSINESS_LICENSE_NUMBER": "9135068179177735XQ", "XC_DATE": "2022-01-18", "NUM_": 2}, {"ID": "b3eac5d3407342c8869052750be3fb13", "EPS_NAME": "广东舒琦生物科技有限公司", "PRODUCT_SN": "粤妆20220032", "CITY_CODE": null, "XK_COMPLETE_DATE": {"date": 17, "day": 1, "hours": 0, "minutes": 0, "month": 0, "nanos": 0, "seconds": 0, "time": 1642348800000, "timezoneOffset": -480, "year": 122}, "XK_DATE": "2027-01-16", "QF_MANAGER_NAME": "广东省药品监督管理局", "BUSINESS_LICENSE_NUMBER": "91440513MA56YBMQXN", "XC_DATE": "2022-01-17", "NUM_": 3}, {"ID": "4c9fb90f12d64321a380bcac949d644d", "EPS_NAME": "广东姬奈生物科技有限公司", "PRODUCT_SN": "粤妆20220031", "CITY_CODE": null, "XK_COMPLETE_DATE": {"date": 17, "day": 1, "hours": 0, "minutes": 0, "month": 0, "nanos": 0, "seconds": 0, "time": 1642348800000, "timezoneOffset": -480, "year": 122}, "XK_DATE": "2027-01-16", "QF_MANAGER_NAME": "广东省药品监督管理局", "BUSINESS_LICENSE_NUMBER": "91440514MA57D4JJ0G", "XC_DATE": "2022-01-17", "NUM_": 4}, {"ID": "0ffe40a1657d4c75b06d3b14220f7ea4", "EPS_NAME": "广东三木生化妆品有限公司", "PRODUCT_SN": "粤妆20220011", "CITY_CODE": null, "XK_COMPLETE_DATE": {"date": 17, "day": 1, "hours": 0, "minutes": 0, "month": 0, "nanos": 0, "seconds": 0, "time": 1642348800000, "timezoneOffset": -480, "year": 122}, "XK_DATE": "2027-01-05", "QF_MANAGER_NAME": "广东省药品监督管理局", "BUSINESS_LICENSE_NUMBER": "91440101MA9Y65L719", "XC_DATE": "2022-01-17", "NUM_": 5}, {"ID": "94f9691f89a24204abad9ce71b309684", "EPS_NAME": "汕头市诺依颜化妆品有限公司", "PRODUCT_SN": "粤妆20170403", "CITY_CODE": null, "XK_COMPLETE_DATE": {"date": 17, "day": 1, "hours": 0, "minutes": 0, "month": 0, "nanos": 0, "seconds": 0, "time": 1642348800000, "timezoneOffset": -480, "year": 122}, "XK_DATE": "2022-05-25", "QF_MANAGER_NAME": "广东省药品监督管理局", "BUSINESS_LICENSE_NUMBER": "91440507077878604T", "XC_DATE": "2022-01-17", "NUM_": 6}, {"ID": "2c6260fb9c57420b85e94c885b589972", "EPS_NAME": "苏州元美科技有限公司", "PRODUCT_SN": "苏妆20200008", "CITY_CODE": "84", "XK_COMPLETE_DATE": {"date": 17, "day": 1, "hours": 0, "minutes": 0, "month": 0, "nanos": 0, "seconds": 0, "time": 1642348800000, "timezoneOffset": -480, "year": 122}, "XK_DATE": "2025-06-01", "QF_MANAGER_NAME": "江苏省药品监督管理局", "BUSINESS_LICENSE_NUMBER": "91320594MA20LL6439", "XC_DATE": "2022-01-17", "NUM_": 7}, {"ID": "a7f8ffe9c48f4bcaac1e3259d9454aaf", "EPS_NAME": "厦门梦丽洁日化有限公司", "PRODUCT_SN": "闽妆20210005", "CITY_CODE": "136", "XK_COMPLETE_DATE": {"date": 17, "day": 1, "hours": 0, "minutes": 0, "month": 0, "nanos": 0, "seconds": 0, "time": 1642348800000, "timezoneOffset": -480, "year": 122}, "XK_DATE": "2027-01-17", "QF_MANAGER_NAME": "福建省药品监督管理局", "BUSINESS_LICENSE_NUMBER": "91350212MA356LPW8W", "XC_DATE": "2022-01-17", "NUM_": 8}, {"ID": "39fe12aa30ef4eaa9443b9990d5f123d", "EPS_NAME": "广东合臣生物科技有限公司", "PRODUCT_SN": "粤妆20220020", "CITY_CODE": null, "XK_COMPLETE_DATE": {"date": 14, "day": 5, "hours": 0, "minutes": 0, "month": 0, "nanos": 0, "seconds": 0, "time": 1642089600000, "timezoneOffset": -480, "year": 122}, "XK_DATE": "2027-01-13", "QF_MANAGER_NAME": "广东省药品监督管理局", "BUSINESS_LICENSE_NUMBER": "91440607MA57CTQ7X9", "XC_DATE": "2022-01-14", "NUM_": 9}, {"ID": "da2da316b4e04a2e95881dc848f6cb0a", "EPS_NAME": "东莞市新盛化妆品有限公司", "PRODUCT_SN": "粤妆20220019", "CITY_CODE": null, "XK_COMPLETE_DATE": {"date": 14, "day": 5, "hours": 0, "minutes": 0, "month": 0, "nanos": 0, "seconds": 0, "time": 1642089600000, "timezoneOffset": -480, "year": 122}, "XK_DATE": "2027-01-13", "QF_MANAGER_NAME": "广东省药品监督管理局", "BUSINESS_LICENSE_NUMBER": "91441900MA58BWGE7Y", "XC_DATE": "2022-01-14", "NUM_": 10}, {"ID": "ae5a0448dcb34d149a5eb13516171fa1", "EPS_NAME": "纯沅（佛山）医药生物科技有限公司", "PRODUCT_SN": "粤妆20210036", "CITY_CODE": null, "XK_COMPLETE_DATE": {"date": 14, "day": 5, "hours": 0, "minutes": 0, "month": 0, "nanos": 0, "seconds": 0, "time": 1642089600000, "timezoneOffset": -480, "year": 122}, "XK_DATE": "2026-02-02", "QF_MANAGER_NAME": "广东省药品监督管理局", "BUSINESS_LICENSE_NUMBER": "91440607MA553K1F0P", "XC_DATE": "2022-01-14", "NUM_": 11}, {"ID": "eba623dd967a4587bfd73573f222d6df", "EPS_NAME": "广州市伊亿莉化妆品有限公司", "PRODUCT_SN": "粤妆20170432", "CITY_CODE": null, "XK_COMPLETE_DATE": {"date": 14, "day": 5, "hours": 0, "minutes": 0, "month": 0, "nanos": 0, "seconds": 0, "time": 1642089600000, "timezoneOffset": -480, "year": 122}, "XK_DATE": "2022-07-16", "QF_MANAGER_NAME": "广东省药品监督管理局", "BUSINESS_LICENSE_NUMBER": "91440101766123717R", "XC_DATE": "2022-01-14", "NUM_": 12}, {"ID": "252e9e60077a492d89a8988bd663c86b", "EPS_NAME": "广州市柔纯信息科技有限公司", "PRODUCT_SN": "粤妆20170343", "CITY_CODE": null, "XK_COMPLETE_DATE": {"date": 14, "day": 5, "hours": 0, "minutes": 0, "month": 0, "nanos": 0, "seconds": 0, "time": 1642089600000, "timezoneOffset": -480, "year": 122}, "XK_DATE": "2027-03-23", "QF_MANAGER_NAME": "广东省药品监督管理局", "BUSINESS_LICENSE_NUMBER": "91440101087746429F", "XC_DATE": "2022-01-14", "NUM_": 13}, {"ID": "c3e3e854f6dd478da6c0c9f20b168779", "EPS_NAME": "广州群妍化妆品有限公司", "PRODUCT_SN": "粤妆20170330", "CITY_CODE": null, "XK_COMPLETE_DATE": {"date": 14, "day": 5, "hours": 0, "minutes": 0, "month": 0, "nanos": 0, "seconds": 0, "time": 1642089600000, "timezoneOffset": -480, "year": 122}, "XK_DATE": "2027-03-13", "QF_MANAGER_NAME": "广东省药品监督管理局", "BUSINESS_LICENSE_NUMBER": "91440101775669201W", "XC_DATE": "2022-01-14", "NUM_": 14}, {"ID": "3065cf5561f842f89a60265aee15e96d", "EPS_NAME": "广州市康妃化妆品有限公司", "PRODUCT_SN": "粤妆20170315", "CITY_CODE": null, "XK_COMPLETE_DATE": {"date": 14, "day": 5, "hours": 0, "minutes": 0, "month": 0, "nanos": 0, "seconds": 0, "time": 1642089600000, "timezoneOffset": -480, "year": 122}, "XK_DATE": "2027-03-13", "QF_MANAGER_NAME": "广东省药品监督管理局", "BUSINESS_LICENSE_NUMBER": "91440101766106028C", "XC_DATE": "2022-01-14", "NUM_": 15}], "orderBy": "createDate", "orderType": "desc", "pageCount": 382, "pageNumber": 1, "pageSize": 15, "property": "", "totalCount": 5722}